,Class,ppv_before,npv_before,ppv_afterFSL,npv_afterFSL
0,Atelectasis,93.73875899280576,33.242753623188406,96.94244604316546,66.39492753623189
1,Cardiomegaly,94.9225561596061,55.77689243027888,97.46640681095498,80.0796812749004
2,Effusion,93.707015130674,50.0,96.69876203576341,75.62695924764891
3,Infiltration,96.58453281288118,13.20754716981132,98.20687972676264,55.77136514983352
4,Mass,94.65059731472671,47.31977818853974,97.15614758431124,71.34935304990758
5,Nodule,96.259989344699,30.73170731707317,98.33777304208844,66.66666666666666
6,Pneumonia,96.34689334142887,24.576271186440678,98.16838696620117,57.6271186440678
7,Pneumothorax,94.47014297729184,52.459016393442624,97.30866274179984,76.4344262295082
8,Consolidation,94.19591409114719,28.35164835164835,97.52750130958617,62.857142857142854
9,Edema,94.03304773561811,50.0,97.23582211342308,70.40816326530613
10,Emphysema,95.86700767263427,63.55555555555556,97.94373401534527,86.66666666666667
11,Fibrosis,95.3358398536734,38.36477987421384,97.70348541814856,69.81132075471697
12,Pleural_Thickening,95.26321232805874,32.02416918429003,97.64194849519082,65.55891238670695
13,Hernia,97.40402926731483,65.21739130434783,98.78721058434398,82.6086956521739
